{
  "images" : [
    {
      "idiom" : "universal",
      "filename" : "imgbin-post-it-note-paper-post-it-pink-sticky-note-with-orange-board-pin-illustration-kzFZ9XvGAB0XzD1mGUqLFkprg.jpg",
      "scale" : "1x"
    },
    {
      "idiom" : "universal",
      "scale" : "2x"
    },
    {
      "idiom" : "universal",
      "scale" : "3x"
    }
  ],
  "info" : {
    "version" : 1,
    "author" : "xcode"
  }
}